@startuml

class Category {
    {field} id: UuidInterface
    {field} name: String
    {field} slug: String
    {field} createdAt: Datetime
    {field} updatedAt: Datetime
}

class Product {
    {field} id: UuidInterface
    {field} name: String
    {field} price: String
    {field} category: Category
    {field} slug: String
    {field} stock: Integer
    {field} createdAt: Datetime
    {field} updatedAt: Datetime
}

class Order {
    {field} id: UuidInterface
    {field} name: String
    {field} products: Product[]
    {field} client: Client
}

class Address {
    {field} id: UuidInterface
    {field} name: String
    {field} address: String
    {field} postalCode: String
    {field} city: String
}

class Client {
    {field} firstname: String
    {field} lastname: String
    {field} address: Address
}

class User {
    {field} id: UuidInterface
    {field} username: String
    {field} password: String
    {field} email: String
}

User <|-- Client

@enduml